Processor_2/decoder_tb.vcd
$date
	Thu Sep 10 17:58:15 2020
$end
$version
	Icarus Verilog
$end
$timescale
	100ps
$end
$scope module decoder_tb $end
$var wire 32 ! register [31:0] $end
$var reg 5 " select [4:0] $end
$scope module decode $end
$var wire 5 # select [4:0] $end
$var wire 1 $ w0N $end
$var wire 1 % w1N $end
$var wire 1 & w2N $end
$var wire 1 ' w3N $end
$var wire 1 ( w4N $end
$var wire 1 ) w4 $end
$var wire 1 * w3 $end
$var wire 1 + w2 $end
$var wire 1 , w1 $end
$var wire 1 - w0 $end
$var wire 32 . register [31:0] $end
$upscope $end
$upscope $end
$enddefinitions $end
#0
$dumpvars
b1 .
0-
0,
0+
0*
0)
1(
1'
1&
1%
1$
b0 #
b0 "
b1 !
$end
#1000
b10 !
b10 .
0(
1)
b1 "
b1 #
#2000
b100 !
b100 .
1(
0'
0)
1*
b10 "
b10 #
#3000
b1000 !
b1000 .
0(
1)
b11 "
b11 #
#4000
b10000 !
b10000 .
1(
1'
0&
0)
0*
1+
b100 "
b100 #
#5000
b100000 !
b100000 .
0(
1)
b101 "
b101 #
#6000
b1000000 !
b1000000 .
1(
0'
0)
1*
b110 "
b110 #
#7000
b10000000 !
b10000000 .
0(
1)
b111 "
b111 #
#8000
b100000000 !
b100000000 .
1(
1'
1&
0%
0)
0*
0+
1,
b1000 "
b1000 #
#9000
b1000000000 !
b1000000000 .
0(
1)
b1001 "
b1001 #
#10000
b10000000000 !
b10000000000 .
1(
0'
0)
1*
b1010 "
b1010 #
#11000
b100000000000 !
b100000000000 .
0(
1)
b1011 "
b1011 #
#12000
b1000000000000 !
b1000000000000 .
1(
1'
0&
0)
0*
1+
b1100 "
b1100 #
#13000
b10000000000000 !
b10000000000000 .
0(
1)
b1101 "
b1101 #
#14000
b100000000000000 !
b100000000000000 .
1(
0'
0)
1*
b1110 "
b1110 #
#15000
b1000000000000000 !
b1000000000000000 .
0(
1)
b1111 "
b1111 #
#16000
b10000000000000000 !
b10000000000000000 .
1(
1'
1&
1%
0$
0)
0*
0+
0,
1-
b10000 "
b10000 #
#17000
b100000000000000000 !
b100000000000000000 .
0(
1)
b10001 "
b10001 #
#18000
b1000000000000000000 !
b1000000000000000000 .
1(
0'
0)
1*
b10010 "
b10010 #
#19000
b10000000000000000000 !
b10000000000000000000 .
0(
1)
b10011 "
b10011 #
#20000
b100000000000000000000 !
b100000000000000000000 .
1(
1'
0&
0)
0*
1+
b10100 "
b10100 #
#21000
b1000000000000000000000 !
b1000000000000000000000 .
0(
1)
b10101 "
b10101 #
#22000
b10000000000000000000000 !
b10000000000000000000000 .
1(
0'
0)
1*
b10110 "
b10110 #
#23000
b100000000000000000000000 !
b100000000000000000000000 .
0(
1)
b10111 "
b10111 #
#24000
b1000000000000000000000000 !
b1000000000000000000000000 .
1(
1'
1&
0%
0)
0*
0+
1,
b11000 "
b11000 #
#25000
b10000000000000000000000000 !
b10000000000000000000000000 .
0(
1)
b11001 "
b11001 #
#26000
b100000000000000000000000000 !
b100000000000000000000000000 .
1(
0'
0)
1*
b11010 "
b11010 #
#27000
b1000000000000000000000000000 !
b1000000000000000000000000000 .
0(
1)
b11011 "
b11011 #
#28000
b10000000000000000000000000000 !
b10000000000000000000000000000 .
1(
1'
0&
0)
0*
1+
b11100 "
b11100 #
#29000
b100000000000000000000000000000 !
b100000000000000000000000000000 .
0(
1)
b11101 "
b11101 #
#30000
b1000000000000000000000000000000 !
b1000000000000000000000000000000 .
1(
0'
0)
1*
b11110 "
b11110 #
#31000
b10000000000000000000000000000000 !
b10000000000000000000000000000000 .
0(
1)
b11111 "
b11111 #
#32000
b1 !
b1 .
1(
1'
1&
1%
1$
0)
0*
0+
0,
0-
b0 "
b0 #
