Processor/ece-350-pc-3-main/six_bit_counter_waveform.vcd
$date
	Tue Feb 23 21:16:01 2021
$end
$version
	Icarus Verilog
$end
$timescale
	1ps
$end
$scope module five_bit_counter_tb $end
$var wire 5 ! cur_val [4:0] $end
$var reg 1 " clk $end
$var reg 1 # reset $end
$scope module five_bit_counter $end
$var wire 1 " clk $end
$var wire 1 # reset $end
$var wire 1 $ q_not_d4 $end
$var wire 1 % q_not_d3 $end
$var wire 1 & q_not_d2 $end
$var wire 1 ' q_not_d1 $end
$var wire 1 ( q_not_d0 $end
$var wire 5 ) cur_val [4:0] $end
$scope module d_0 $end
$var wire 1 " clk $end
$var wire 1 # clr $end
$var wire 1 ( d $end
$var wire 1 * en $end
$var wire 1 ( q_not $end
$var reg 1 + q $end
$upscope $end
$scope module d_1 $end
$var wire 1 ( clk $end
$var wire 1 # clr $end
$var wire 1 ' d $end
$var wire 1 , en $end
$var wire 1 ' q_not $end
$var reg 1 - q $end
$upscope $end
$scope module d_2 $end
$var wire 1 ' clk $end
$var wire 1 # clr $end
$var wire 1 & d $end
$var wire 1 . en $end
$var wire 1 & q_not $end
$var reg 1 / q $end
$upscope $end
$scope module d_3 $end
$var wire 1 & clk $end
$var wire 1 # clr $end
$var wire 1 % d $end
$var wire 1 0 en $end
$var wire 1 % q_not $end
$var reg 1 1 q $end
$upscope $end
$scope module d_4 $end
$var wire 1 % clk $end
$var wire 1 # clr $end
$var wire 1 $ d $end
$var wire 1 2 en $end
$var wire 1 $ q_not $end
$var reg 1 3 q $end
$upscope $end
$upscope $end
$upscope $end
$enddefinitions $end
#0
$dumpvars
03
12
01
10
0/
1.
0-
1,
0+
1*
b0 )
1(
1'
1&
1%
1$
1#
0"
b0 !
$end
#10000
1"
#20000
0"
#30000
1"
#40000
0"
#50000
1"
#60000
0"
#70000
1"
#80000
0"
#90000
1"
#100000
0"
#110000
1"
#120000
0"
#130000
1"
#140000
0"
#150000
1"
#160000
0"
#170000
1"
#180000
0"
#190000
1"
#200000
0"
#210000
1"
#220000
0"
#230000
1"
#240000
0"
#250000
1"
#260000
0"
#270000
1"
#280000
0"
#290000
1"
#300000
0"
#310000
1"
#320000
0"
#330000
1"
#340000
0"
#350000
1"
#360000
0"
#370000
1"
#380000
0"
#390000
1"
#400000
0"
#410000
1"
#420000
0"
#430000
1"
#440000
0"
#450000
1"
#460000
0"
#470000
1"
#480000
0"
#490000
1"
#500000
0"
#510000
1"
#520000
0"
#530000
1"
#540000
0"
#550000
1"
#560000
0"
#570000
1"
#580000
0"
#590000
1"
#600000
0"
#610000
1"
#620000
0"
#630000
1"
#640000
0"
0#
#650000
0(
b1 !
b1 )
1+
1"
#660000
0"
#670000
0'
1-
1(
b10 !
b10 )
0+
1"
#680000
0"
#690000
0(
b11 !
b11 )
1+
1"
#700000
0"
#710000
0&
1/
1'
0-
1(
b100 !
b100 )
0+
1"
#720000
0"
#730000
0(
b101 !
b101 )
1+
1"
#740000
0"
#750000
0'
1-
1(
b110 !
b110 )
0+
1"
#760000
0"
#770000
0(
b111 !
b111 )
1+
1"
#780000
0"
#790000
0%
11
1&
0/
1'
0-
1(
b1000 !
b1000 )
0+
1"
#800000
0"
#810000
0(
b1001 !
b1001 )
1+
1"
#820000
0"
#830000
0'
1-
1(
b1010 !
b1010 )
0+
1"
#840000
0"
#850000
0(
b1011 !
b1011 )
1+
1"
#860000
0"
#870000
0&
1/
1'
0-
1(
b1100 !
b1100 )
0+
1"
#880000
0"
#890000
0(
b1101 !
b1101 )
1+
1"
#900000
0"
#910000
0'
1-
1(
b1110 !
b1110 )
0+
1"
#920000
0"
#930000
0(
b1111 !
b1111 )
1+
1"
#940000
0"
#950000
0$
13
1%
01
1&
0/
1'
0-
1(
b10000 !
b10000 )
0+
1"
#960000
0"
#970000
0(
b10001 !
b10001 )
1+
1"
#980000
0"
#990000
0'
1-
1(
b10010 !
b10010 )
0+
1"
#1000000
0"
#1010000
0(
b10011 !
b10011 )
1+
1"
#1020000
0"
#1030000
0&
1/
1'
0-
1(
b10100 !
b10100 )
0+
1"
#1040000
0"
#1050000
0(
b10101 !
b10101 )
1+
1"
#1060000
0"
#1070000
0'
1-
1(
b10110 !
b10110 )
0+
1"
#1080000
0"
#1090000
0(
b10111 !
b10111 )
1+
1"
#1100000
0"
#1110000
0%
11
1&
0/
1'
0-
1(
b11000 !
b11000 )
0+
1"
#1120000
0"
#1130000
0(
b11001 !
b11001 )
1+
1"
#1140000
0"
#1150000
0'
1-
1(
b11010 !
b11010 )
0+
1"
#1160000
0"
#1170000
0(
b11011 !
b11011 )
1+
1"
#1180000
0"
#1190000
0&
1/
1'
0-
1(
b11100 !
b11100 )
0+
1"
#1200000
0"
#1210000
0(
b11101 !
b11101 )
1+
1"
#1220000
0"
#1230000
0'
1-
1(
b11110 !
b11110 )
0+
1"
#1240000
0"
#1250000
0(
b11111 !
b11111 )
1+
1"
#1260000
0"
#1270000
1$
03
1%
01
1&
0/
1'
0-
1(
b0 !
b0 )
0+
1"
#1280000
0"
1#
